^C:\BIORADIOSDK\DLL\EXAMPLE_VCPP\BIORADIO150DLL_SDKEXAMPLE_VCPP.CPP
C:\BIORADIOSDK\DLL\EXAMPLE_VCPP\DEBUG\BIORADIO150DLL_SDKEXAMPLE_VCPP.OBJ
C:\BIORADIOSDK\DLL\EXAMPLE_VCPP\DEBUG\VC100.PDB
^H:\CODE PROJECTS\BATTLEELECTRICS\BIORADIO PICKUP\BIORADIO150DLL_SDKEXAMPLE_VCPP.CPP
H:\CODE PROJECTS\BATTLEELECTRICS\BIORADIO PICKUP\DEBUG\BIORADIO150DLL_SDKEXAMPLE_VCPP.OBJ
H:\CODE PROJECTS\BATTLEELECTRICS\BIORADIO PICKUP\DEBUG\VC100.PDB
^C:\USERS\GARRIOTT\DESKTOP\TRDTAYLOR-BATTLE-EMG-75607315C5C4\BIORADIO GATHERING\BIORADIO150DLL_SDKEXAMPLE_VCPP.CPP
C:\USERS\GARRIOTT\DESKTOP\TRDTAYLOR-BATTLE-EMG-75607315C5C4\BIORADIO GATHERING\DEBUG\VC100.PDB
C:\USERS\GARRIOTT\DESKTOP\TRDTAYLOR-BATTLE-EMG-75607315C5C4\BIORADIO GATHERING\DEBUG\BIORADIO150DLL_SDKEXAMPLE_VCPP.OBJ
^H:\CODE PROJECTS\BATTLE-EMG\BIORADIO GATHERING\BIORADIO150DLL_SDKEXAMPLE_VCPP.CPP
H:\CODE PROJECTS\BATTLE-EMG\BIORADIO GATHERING\DEBUG\BIORADIO150DLL_SDKEXAMPLE_VCPP.OBJ
H:\CODE PROJECTS\BATTLE-EMG\BIORADIO GATHERING\DEBUG\VC100.PDB
^C:\USERS\GARRIOTT\DESKTOP\BATTLE-EMG\BIORADIO GATHERING\BIORADIO150DLL_SDKEXAMPLE_VCPP.CPP
C:\USERS\GARRIOTT\DESKTOP\BATTLE-EMG\BIORADIO GATHERING\DEBUG\BIORADIO150DLL_SDKEXAMPLE_VCPP.OBJ
C:\USERS\GARRIOTT\DESKTOP\BATTLE-EMG\BIORADIO GATHERING\DEBUG\VC100.PDB
^G:\BATTLE-EMG\BIORADIO GATHERING\BIORADIO150DLL_SDKEXAMPLE_VCPP.CPP
G:\BATTLE-EMG\BIORADIO GATHERING\DEBUG\BIORADIO150DLL_SDKEXAMPLE_VCPP.OBJ
G:\BATTLE-EMG\BIORADIO GATHERING\DEBUG\VC100.PDB
